{
  "albums": {
    "href": "https://api.spotify.com/v1/search?query=rammstein&type=album&offset=0&limit=2",
    "items": [
      {
        "album_type": "album",
        "artists": [
          {
            "external_urls": {
              "spotify": "https://open.spotify.com/artist/6wWVKhxIU2cEi0K81v7HvP"
            },
            "href": "https://api.spotify.com/v1/artists/6wWVKhxIU2cEi0K81v7HvP",
            "id": "6wWVKhxIU2cEi0K81v7HvP",
            "name": "Rammstein",
            "type": "artist",
            "uri": "spotify:artist:6wWVKhxIU2cEi0K81v7HvP"
          }
        ],
        "external_urls": {
          "spotify": "https://open.spotify.com/album/1LoyJQVHPLHE3fCCS8Juek"
        },
        "href": "https://api.spotify.com/v1/albums/1LoyJQVHPLHE3fCCS8Juek",
        "id": "1LoyJQVHPLHE3fCCS8Juek",
        "images": [
          {
            "height": 300,
            "url": "https://i.scdn.co/image/f6fc764b37c083731b244d9553ea1ca394588f21",
            "width": 300
          }
        ],
        "name": "RAMMSTEIN",
        "release_date": "2019-05-17",
        "release_date_precision": "day",
        "total_tracks": 11,
        "type": "album",
        "uri": "spotify:album:1LoyJQVHPLHE3fCCS8Juek"
      },
      {
        "album_type": "album",
        "artists": [
          {
            "external_urls": {
              "spotify": "https://open.spotify.com/artist/6wWVKhxIU2cEi0K81v7HvP"
            },
            "href": "https://api.spotify.com/v1/artists/6wWVKhxIU2cEi0K81v7HvP",
            "id": "6wWVKhxIU2cEi0K81v7HvP",
            "name": "Rammstein",
            "type": "artist",
            "uri": "spotify:artist:6wWVKhxIU2cEi0K81v7HvP"
          }
        ],
        "external_urls": {
          "spotify": "https://open.spotify.com/album/1CtTTpKbHU8KbHRB4LmBbv"
        },
        "href": "https://api.spotify.com/v1/albums/1CtTTpKbHU8KbHRB4LmBbv",
        "id": "1CtTTpKbHU8KbHRB4LmBbv",
        "images": [
          {
            "height": 300,
            "url": "https://i.scdn.co/image/b25f3cb7dd21408b275eee3d10331f9ca1c8f925",
            "width": 300
          }
        ],
        "name": "Mutter",
        "release_date": "2001-04-02",
        "release_date_precision": "day",
        "total_tracks": 11,
        "type": "album",
        "uri": "spotify:album:1CtTTpKbHU8KbHRB4LmBbv"
      }
    ],
    "limit": 2,
    "next": "https://api.spotify.com/v1/search?query=rammstein&type=album&market=FR&offset=2&limit=2",
    "offset": 0,
    "previous": null,
    "total": 4
  }
}