{
  "tracks": {
    "href": "https://api.spotify.com/v1/search?query=rammstein&type=track&offset=0&limit=2",
    "items": [
      {
        "album": {
          "album_type": "album",
          "artists": [
            {
              "external_urls": {
                "spotify": "https://open.spotify.com/artist/6wWVKhxIU2cEi0K81v7HvP"
              },
              "href": "https://api.spotify.com/v1/artists/6wWVKhxIU2cEi0K81v7HvP",
              "id": "6wWVKhxIU2cEi0K81v7HvP",
              "name": "Rammstein",
              "type": "artist",
              "uri": "spotify:artist:6wWVKhxIU2cEi0K81v7HvP"
            }
          ],
          "external_urls": {
            "spotify": "https://open.spotify.com/album/1LoyJQVHPLHE3fCCS8Juek"
          },
          "href": "https://api.spotify.com/v1/albums/1LoyJQVHPLHE3fCCS8Juek",
          "id": "1LoyJQVHPLHE3fCCS8Juek",
          "images": [
            {
              "height": 300,
              "url": "https://i.scdn.co/image/f6fc764b37c083731b244d9553ea1ca394588f21",
              "width": 300
            }
          ],
          "name": "RAMMSTEIN",
          "release_date": "2019-05-17",
          "release_date_precision": "day",
          "total_tracks": 11,
          "type": "album",
          "uri": "spotify:album:1LoyJQVHPLHE3fCCS8Juek"
        },
        "artists": [
          {
            "external_urls": {
              "spotify": "https://open.spotify.com/artist/6wWVKhxIU2cEi0K81v7HvP"
            },
            "href": "https://api.spotify.com/v1/artists/6wWVKhxIU2cEi0K81v7HvP",
            "id": "6wWVKhxIU2cEi0K81v7HvP",
            "name": "Rammstein",
            "type": "artist",
            "uri": "spotify:artist:6wWVKhxIU2cEi0K81v7HvP"
          }
        ],
        "disc_number": 1,
        "duration_ms": 322339,
        "explicit": false,
        "external_ids": {
          "isrc": "DEUM71900524"
        },
        "external_urls": {
          "spotify": "https://open.spotify.com/track/2bPGTMB5sFfFYQ2YvSmup0"
        },
        "href": "https://api.spotify.com/v1/tracks/2bPGTMB5sFfFYQ2YvSmup0",
        "id": "2bPGTMB5sFfFYQ2YvSmup0",
        "is_local": false,
        "name": "DEUTSCHLAND",
        "popularity": 74,
        "preview_url": null,
        "track_number": 1,
        "type": "track",
        "uri": "spotify:track:2bPGTMB5sFfFYQ2YvSmup0"
      },
      {
        "album": {
          "album_type": "album",
          "artists": [
            {
              "external_urls": {
                "spotify": "https://open.spotify.com/artist/6wWVKhxIU2cEi0K81v7HvP"
              },
              "href": "https://api.spotify.com/v1/artists/6wWVKhxIU2cEi0K81v7HvP",
              "id": "6wWVKhxIU2cEi0K81v7HvP",
              "name": "Rammstein",
              "type": "artist",
              "uri": "spotify:artist:6wWVKhxIU2cEi0K81v7HvP"
            }
          ],
          "external_urls": {
            "spotify": "https://open.spotify.com/album/1LoyJQVHPLHE3fCCS8Juek"
          },
          "href": "https://api.spotify.com/v1/albums/1LoyJQVHPLHE3fCCS8Juek",
          "id": "1LoyJQVHPLHE3fCCS8Juek",
          "images": [
            {
              "height": 640,
              "url": "https://i.scdn.co/image/de76e6453da0f3d744a099b0bd47b9db973236aa",
              "width": 640
            },
            {
              "height": 300,
              "url": "https://i.scdn.co/image/f6fc764b37c083731b244d9553ea1ca394588f21",
              "width": 300
            },
            {
              "height": 64,
              "url": "https://i.scdn.co/image/9501c62e8f931d67326a7f965609bfa84d1935dd",
              "width": 64
            }
          ],
          "name": "RAMMSTEIN",
          "release_date": "2019-05-17",
          "release_date_precision": "day",
          "total_tracks": 11,
          "type": "album",
          "uri": "spotify:album:1LoyJQVHPLHE3fCCS8Juek"
        },
        "artists": [
          {
            "external_urls": {
              "spotify": "https://open.spotify.com/artist/6wWVKhxIU2cEi0K81v7HvP"
            },
            "href": "https://api.spotify.com/v1/artists/6wWVKhxIU2cEi0K81v7HvP",
            "id": "6wWVKhxIU2cEi0K81v7HvP",
            "name": "Rammstein",
            "type": "artist",
            "uri": "spotify:artist:6wWVKhxIU2cEi0K81v7HvP"
          }
        ],
        "disc_number": 1,
        "duration_ms": 231603,
        "explicit": false,
        "external_ids": {
          "isrc": "DEUM71900527"
        },
        "external_urls": {
          "spotify": "https://open.spotify.com/track/7j43FohbLVulScL7S9sQZk"
        },
        "href": "https://api.spotify.com/v1/tracks/7j43FohbLVulScL7S9sQZk",
        "id": "7j43FohbLVulScL7S9sQZk",
        "is_local": false,
        "name": "AUSLÄNDER",
        "popularity": 74,
        "preview_url": null,
        "track_number": 4,
        "type": "track",
        "uri": "spotify:track:7j43FohbLVulScL7S9sQZk"
      }
    ],
    "limit": 2,
    "next": "https://api.spotify.com/v1/search?query=rammstein&type=track&offset=2&limit=2",
    "offset": 0,
    "previous": null,
    "total": 455
  }
}