{
  "href": "https://api.spotify.com/v1/albums/5OZgDtx180ZZPMpm36J2zC/tracks?offset=0&limit=2",
  "items": [
    {
      "artists": [
        {
          "external_urls": {
            "spotify": "https://open.spotify.com/artist/12Chz98pHFMPJEknJQMWvI"
          },
          "href": "https://api.spotify.com/v1/artists/12Chz98pHFMPJEknJQMWvI",
          "id": "12Chz98pHFMPJEknJQMWvI",
          "name": "Muse",
          "type": "artist",
          "uri": "spotify:artist:12Chz98pHFMPJEknJQMWvI"
        }
      ],
      "disc_number": 1,
      "duration_ms": 245960,
      "explicit": false,
      "external_urls": {
        "spotify": "https://open.spotify.com/track/7f0vVL3xi4i78Rv5Ptn2s1"
      },
      "href": "https://api.spotify.com/v1/tracks/7f0vVL3xi4i78Rv5Ptn2s1",
      "id": "7f0vVL3xi4i78Rv5Ptn2s1",
      "is_local": false,
      "is_playable": true,
      "name": "Algorithm",
      "preview_url": "https://p.scdn.co/mp3-preview/00d386644c07673f05878e337f977911c0ba740b?cid=774b29d4f13844c495f206cafdad9c86",
      "track_number": 1,
      "type": "track",
      "uri": "spotify:track:7f0vVL3xi4i78Rv5Ptn2s1"
    },
    {
      "artists": [
        {
          "external_urls": {
            "spotify": "https://open.spotify.com/artist/12Chz98pHFMPJEknJQMWvI"
          },
          "href": "https://api.spotify.com/v1/artists/12Chz98pHFMPJEknJQMWvI",
          "id": "12Chz98pHFMPJEknJQMWvI",
          "name": "Muse",
          "type": "artist",
          "uri": "spotify:artist:12Chz98pHFMPJEknJQMWvI"
        }
      ],
      "disc_number": 1,
      "duration_ms": 227213,
      "explicit": false,
      "external_urls": {
        "spotify": "https://open.spotify.com/track/0dMYPDqcI4ca4cjqlmp9mE"
      },
      "href": "https://api.spotify.com/v1/tracks/0dMYPDqcI4ca4cjqlmp9mE",
      "id": "0dMYPDqcI4ca4cjqlmp9mE",
      "is_local": false,
      "is_playable": true,
      "name": "The Dark Side",
      "preview_url": "https://p.scdn.co/mp3-preview/5995cbc458c74a9f4beb50ca250a9920d3b1d8ab?cid=774b29d4f13844c495f206cafdad9c86",
      "track_number": 2,
      "type": "track",
      "uri": "spotify:track:0dMYPDqcI4ca4cjqlmp9mE"
    }
  ],
  "limit": 2,
  "next": "https://api.spotify.com/v1/albums/5OZgDtx180ZZPMpm36J2zC/tracks?offset=2&limit=2",
  "offset": 0,
  "previous": null,
  "total": 4
}